id,name,model_id:id,group_id:id,perm_read,perm_write,perm_create,perm_unlink
access_klinikbersama_person,klinikbersama.person,model_klinikbersama_person,,1,1,1,1
access_klinikbersama_dokter,klinikbersama.dokter,model_klinikbersama_dokter,,1,1,1,1
access_klinikbersama_pasien,klinikbersama.pasien,model_klinikbersama_pasien,,1,1,1,1
access_klinikbersama_jadwal_dokter,klinikbersama.jadwal.dokter,model_klinikbersama_jadwal_dokter,,1,1,1,1
access_klinikbersama_perawatan,klinikbersama.perawatan,model_klinikbersama_perawatan,,1,1,1,1
access_klinikbersama_obat,klinikbersama.obat,model_klinikbersama_obat,,1,1,1,1
access_klinikbersama_penjualan_obat,klinikbersama.penjualan.obat,model_klinikbersama_penjualan_obat,,1,1,1,1
access_klinikbersama_detail_penjualan_obat,klinikbersama.detail.penjualan.obat,model_klinikbersama_detail_penjualan_obat,,1,1,1,1
access_klinikbersama_penghasilan_dokter,klinikbersama.penghasilan.dokter,model_klinikbersama_penghasilan_dokter,,1,1,1,1
access_klinikbersama_pengeluaran_pasien,klinikbersama.penghasilan.dokter,model_klinikbersama_pengeluaran_pasien,,1,1,1,1